<?xml version="1.0" encoding="utf-8"?>
<svg xmlns="http://www.w3.org/2000/svg"
	xmlns:xlink="http://www.w3.org/1999/xlink"
	width="9px" height="17px" viewBox="0 0 9 17">
<path fillRule="evenodd" d="M 0 15C 0 15 1 15 1 15 1 15 1 16 1 16 1 16 0 16 0 16 0 16 0 15 0 15ZM 0 14C 0 14 1 14 1 14 1 14 1 15 1 15 1 15 0 15 0 15 0 15 0 14 0 14ZM 0 13C 0 13 1 13 1 13 1 13 1 14 1 14 1 14 0 14 0 14 0 14 0 13 0 13ZM 0 12C 0 12 1 12 1 12 1 12 1 13 1 13 1 13 0 13 0 13 0 13 0 12 0 12ZM 0 11C 0 11 1 11 1 11 1 11 1 12 1 12 1 12 0 12 0 12 0 12 0 11 0 11ZM 0 10C 0 10 1 10 1 10 1 10 1 11 1 11 1 11 0 11 0 11 0 11 0 10 0 10ZM 1 16C 1 16 2 16 2 16 2 16 2 17 2 17 2 17 1 17 1 17 1 17 1 16 1 16ZM 1 15C 1 15 2 15 2 15 2 15 2 16 2 16 2 16 1 16 1 16 1 16 1 15 1 15ZM 1 14C 1 14 2 14 2 14 2 14 2 15 2 15 2 15 1 15 1 15 1 15 1 14 1 14ZM 1 13C 1 13 2 13 2 13 2 13 2 14 2 14 2 14 1 14 1 14 1 14 1 13 1 13ZM 1 12C 1 12 2 12 2 12 2 12 2 13 2 13 2 13 1 13 1 13 1 13 1 12 1 12ZM 1 11C 1 11 2 11 2 11 2 11 2 12 2 12 2 12 1 12 1 12 1 12 1 11 1 11ZM 2 15C 2 15 3 15 3 15 3 15 3 16 3 16 3 16 2 16 2 16 2 16 2 15 2 15ZM 2 14C 2 14 3 14 3 14 3 14 3 15 3 15 3 15 2 15 2 15 2 15 2 14 2 14ZM 2 13C 2 13 3 13 3 13 3 13 3 14 3 14 3 14 2 14 2 14 2 14 2 13 2 13ZM 2 12C 2 12 3 12 3 12 3 12 3 13 3 13 3 13 2 13 2 13 2 13 2 12 2 12ZM 3 14C 3 14 4 14 4 14 4 14 4 15 4 15 4 15 3 15 3 15 3 15 3 14 3 14ZM 3 13C 3 13 4 13 4 13 4 13 4 14 4 14 4 14 3 14 3 14 3 14 3 13 3 13ZM 4 13C 4 13 5 13 5 13 5 13 5 14 5 14 5 14 4 14 4 14 4 14 4 13 4 13ZM 3 12C 3 12 4 12 4 12 4 12 4 13 4 13 4 13 3 13 3 13 3 13 3 12 3 12ZM 2 11C 2 11 3 11 3 11 3 11 3 12 3 12 3 12 2 12 2 12 2 12 2 11 2 11ZM 1 10C 1 10 2 10 2 10 2 10 2 11 2 11 2 11 1 11 1 11 1 11 1 10 1 10ZM 0 9C 0 9 1 9 1 9 1 9 1 10 1 10 1 10 0 10 0 10 0 10 0 9 0 9ZM 5 12C 5 12 6 12 6 12 6 12 6 13 6 13 6 13 5 13 5 13 5 13 5 12 5 12ZM 5 11C 5 11 6 11 6 11 6 11 6 12 6 12 6 12 5 12 5 12 5 12 5 11 5 11ZM 5 10C 5 10 6 10 6 10 6 10 6 11 6 11 6 11 5 11 5 11 5 11 5 10 5 10ZM 5 9C 5 9 6 9 6 9 6 9 6 10 6 10 6 10 5 10 5 10 5 10 5 9 5 9ZM 5 8C 5 8 6 8 6 8 6 8 6 9 6 9 6 9 5 9 5 9 5 9 5 8 5 8ZM 5 7C 5 7 6 7 6 7 6 7 6 8 6 8 6 8 5 8 5 8 5 8 5 7 5 7ZM 5 6C 5 6 6 6 6 6 6 6 6 7 6 7 6 7 5 7 5 7 5 7 5 6 5 6ZM 5 5C 5 5 6 5 6 5 6 5 6 6 6 6 6 6 5 6 5 6 5 6 5 5 5 5ZM 6 11C 6 11 7 11 7 11 7 11 7 12 7 12 7 12 6 12 6 12 6 12 6 11 6 11ZM 6 10C 6 10 7 10 7 10 7 10 7 11 7 11 7 11 6 11 6 11 6 11 6 10 6 10ZM 6 9C 6 9 7 9 7 9 7 9 7 10 7 10 7 10 6 10 6 10 6 10 6 9 6 9ZM 6 8C 6 8 7 8 7 8 7 8 7 9 7 9 7 9 6 9 6 9 6 9 6 8 6 8ZM 6 7C 6 7 7 7 7 7 7 7 7 8 7 8 7 8 6 8 6 8 6 8 6 7 6 7ZM 6 6C 6 6 7 6 7 6 7 6 7 7 7 7 7 7 6 7 6 7 6 7 6 6 6 6ZM 7 10C 7 10 8 10 8 10 8 10 8 11 8 11 8 11 7 11 7 11 7 11 7 10 7 10ZM 7 9C 7 9 8 9 8 9 8 9 8 10 8 10 8 10 7 10 7 10 7 10 7 9 7 9ZM 7 8C 7 8 8 8 8 8 8 8 8 9 8 9 8 9 7 9 7 9 7 9 7 8 7 8ZM 7 7C 7 7 8 7 8 7 8 7 8 8 8 8 8 8 7 8 7 8 7 8 7 7 7 7ZM 8 9C 8 9 9 9 9 9 9 9 9 10 9 10 9 10 8 10 8 10 8 10 8 9 8 9ZM 8 8C 8 8 9 8 9 8 9 8 9 9 9 9 9 9 8 9 8 9 8 9 8 8 8 8ZM 8 7C 8 7 9 7 9 7 9 7 9 8 9 8 9 8 8 8 8 8 8 8 8 7 8 7ZM 7 6C 7 6 8 6 8 6 8 6 8 7 8 7 8 7 7 7 7 7 7 7 7 6 7 6ZM 6 5C 6 5 7 5 7 5 7 5 7 6 7 6 7 6 6 6 6 6 6 6 6 5 6 5ZM 5 4C 5 4 6 4 6 4 6 4 6 5 6 5 6 5 5 5 5 5 5 5 5 4 5 4ZM 0 7C 0 7 1 7 1 7 1 7 1 8 1 8 1 8 0 8 0 8 0 8 0 7 0 7ZM 0 6C 0 6 1 6 1 6 1 6 1 7 1 7 1 7 0 7 0 7 0 7 0 6 0 6ZM 0 5C 0 5 1 5 1 5 1 5 1 6 1 6 1 6 0 6 0 6 0 6 0 5 0 5ZM 0 4C 0 4 1 4 1 4 1 4 1 5 1 5 1 5 0 5 0 5 0 5 0 4 0 4ZM 0 3C 0 3 1 3 1 3 1 3 1 4 1 4 1 4 0 4 0 4 0 4 0 3 0 3ZM 0 2C 0 2 1 2 1 2 1 2 1 3 1 3 1 3 0 3 0 3 0 3 0 2 0 2ZM 0 1C 0 1 1 1 1 1 1 1 1 2 1 2 1 2 0 2 0 2 0 2 0 1 0 1ZM 1 6C 1 6 2 6 2 6 2 6 2 7 2 7 2 7 1 7 1 7 1 7 1 6 1 6ZM 1 5C 1 5 2 5 2 5 2 5 2 6 2 6 2 6 1 6 1 6 1 6 1 5 1 5ZM 1 4C 1 4 2 4 2 4 2 4 2 5 2 5 2 5 1 5 1 5 1 5 1 4 1 4ZM 1 3C 1 3 2 3 2 3 2 3 2 4 2 4 2 4 1 4 1 4 1 4 1 3 1 3ZM 1 2C 1 2 2 2 2 2 2 2 2 3 2 3 2 3 1 3 1 3 1 3 1 2 1 2ZM 1 1C 1 1 2 1 2 1 2 1 2 2 2 2 2 2 1 2 1 2 1 2 1 1 1 1ZM 2 5C 2 5 3 5 3 5 3 5 3 6 3 6 3 6 2 6 2 6 2 6 2 5 2 5ZM 2 4C 2 4 3 4 3 4 3 4 3 5 3 5 3 5 2 5 2 5 2 5 2 4 2 4ZM 2 3C 2 3 3 3 3 3 3 3 3 4 3 4 3 4 2 4 2 4 2 4 2 3 2 3ZM 2 2C 2 2 3 2 3 2 3 2 3 3 3 3 3 3 2 3 2 3 2 3 2 2 2 2ZM 3 4C 3 4 4 4 4 4 4 4 4 5 4 5 4 5 3 5 3 5 3 5 3 4 3 4ZM 3 3C 3 3 4 3 4 3 4 3 4 4 4 4 4 4 3 4 3 4 3 4 3 3 3 3ZM 4 3C 4 3 5 3 5 3 5 3 5 4 5 4 5 4 4 4 4 4 4 4 4 3 4 3ZM 3 2C 3 2 4 2 4 2 4 2 4 3 4 3 4 3 3 3 3 3 3 3 3 2 3 2ZM 2 1C 2 1 3 1 3 1 3 1 3 2 3 2 3 2 2 2 2 2 2 2 2 1 2 1ZM 1 0C 1 0 2 0 2 0 2 0 2 1 2 1 2 1 1 1 1 1 1 1 1 0 1 0ZM 0 11C 0 11 1 11 1 11 1 11 1 12 1 12 1 12 0 12 0 12 0 12 0 11 0 11ZM 0 10C 0 10 1 10 1 10 1 10 1 11 1 11 1 11 0 11 0 11 0 11 0 10 0 10ZM 0 9C 0 9 1 9 1 9 1 9 1 10 1 10 1 10 0 10 0 10 0 10 0 9 0 9ZM 0 8C 0 8 1 8 1 8 1 8 1 9 1 9 1 9 0 9 0 9 0 9 0 8 0 8ZM 0 7C 0 7 1 7 1 7 1 7 1 8 1 8 1 8 0 8 0 8 0 8 0 7 0 7ZM 0 6C 0 6 1 6 1 6 1 6 1 7 1 7 1 7 0 7 0 7 0 7 0 6 0 6ZM 0 5C 0 5 1 5 1 5 1 5 1 6 1 6 1 6 0 6 0 6 0 6 0 5 0 5ZM 0 4C 0 4 1 4 1 4 1 4 1 5 1 5 1 5 0 5 0 5 0 5 0 4 0 4ZM 1 10C 1 10 2 10 2 10 2 10 2 11 2 11 2 11 1 11 1 11 1 11 1 10 1 10ZM 1 9C 1 9 2 9 2 9 2 9 2 10 2 10 2 10 1 10 1 10 1 10 1 9 1 9ZM 1 8C 1 8 2 8 2 8 2 8 2 9 2 9 2 9 1 9 1 9 1 9 1 8 1 8ZM 1 7C 1 7 2 7 2 7 2 7 2 8 2 8 2 8 1 8 1 8 1 8 1 7 1 7ZM 1 6C 1 6 2 6 2 6 2 6 2 7 2 7 2 7 1 7 1 7 1 7 1 6 1 6ZM 1 5C 1 5 2 5 2 5 2 5 2 6 2 6 2 6 1 6 1 6 1 6 1 5 1 5ZM 2 9C 2 9 3 9 3 9 3 9 3 10 3 10 3 10 2 10 2 10 2 10 2 9 2 9ZM 2 8C 2 8 3 8 3 8 3 8 3 9 3 9 3 9 2 9 2 9 2 9 2 8 2 8ZM 2 7C 2 7 3 7 3 7 3 7 3 8 3 8 3 8 2 8 2 8 2 8 2 7 2 7ZM 2 6C 2 6 3 6 3 6 3 6 3 7 3 7 3 7 2 7 2 7 2 7 2 6 2 6ZM 3 8C 3 8 4 8 4 8 4 8 4 9 4 9 4 9 3 9 3 9 3 9 3 8 3 8ZM 3 7C 3 7 4 7 4 7 4 7 4 8 4 8 4 8 3 8 3 8 3 8 3 7 3 7ZM 4 7C 4 7 5 7 5 7 5 7 5 8 5 8 5 8 4 8 4 8 4 8 4 7 4 7ZM 3 6C 3 6 4 6 4 6 4 6 4 7 4 7 4 7 3 7 3 7 3 7 3 6 3 6ZM 2 5C 2 5 3 5 3 5 3 5 3 6 3 6 3 6 2 6 2 6 2 6 2 5 2 5ZM 1 4C 1 4 2 4 2 4 2 4 2 5 2 5 2 5 1 5 1 5 1 5 1 4 1 4ZM 0 3C 0 3 1 3 1 3 1 3 1 4 1 4 1 4 0 4 0 4 0 4 0 3 0 3ZM 2 14C 2 14 3 14 3 14 3 14 3 15 3 15 3 15 2 15 2 15 2 15 2 14 2 14ZM 2 13C 2 13 3 13 3 13 3 13 3 14 3 14 3 14 2 14 2 14 2 14 2 13 2 13ZM 2 12C 2 12 3 12 3 12 3 12 3 13 3 13 3 13 2 13 2 13 2 13 2 12 2 12ZM 2 11C 2 11 3 11 3 11 3 11 3 12 3 12 3 12 2 12 2 12 2 12 2 11 2 11ZM 2 10C 2 10 3 10 3 10 3 10 3 11 3 11 3 11 2 11 2 11 2 11 2 10 2 10ZM 2 9C 2 9 3 9 3 9 3 9 3 10 3 10 3 10 2 10 2 10 2 10 2 9 2 9ZM 2 8C 2 8 3 8 3 8 3 8 3 9 3 9 3 9 2 9 2 9 2 9 2 8 2 8ZM 2 7C 2 7 3 7 3 7 3 7 3 8 3 8 3 8 2 8 2 8 2 8 2 7 2 7ZM 3 13C 3 13 4 13 4 13 4 13 4 14 4 14 4 14 3 14 3 14 3 14 3 13 3 13ZM 3 12C 3 12 4 12 4 12 4 12 4 13 4 13 4 13 3 13 3 13 3 13 3 12 3 12ZM 3 11C 3 11 4 11 4 11 4 11 4 12 4 12 4 12 3 12 3 12 3 12 3 11 3 11ZM 3 10C 3 10 4 10 4 10 4 10 4 11 4 11 4 11 3 11 3 11 3 11 3 10 3 10ZM 3 9C 3 9 4 9 4 9 4 9 4 10 4 10 4 10 3 10 3 10 3 10 3 9 3 9ZM 3 8C 3 8 4 8 4 8 4 8 4 9 4 9 4 9 3 9 3 9 3 9 3 8 3 8ZM 4 12C 4 12 5 12 5 12 5 12 5 13 5 13 5 13 4 13 4 13 4 13 4 12 4 12ZM 4 11C 4 11 5 11 5 11 5 11 5 12 5 12 5 12 4 12 4 12 4 12 4 11 4 11ZM 4 10C 4 10 5 10 5 10 5 10 5 11 5 11 5 11 4 11 4 11 4 11 4 10 4 10ZM 4 9C 4 9 5 9 5 9 5 9 5 10 5 10 5 10 4 10 4 10 4 10 4 9 4 9ZM 5 11C 5 11 6 11 6 11 6 11 6 12 6 12 6 12 5 12 5 12 5 12 5 11 5 11ZM 5 10C 5 10 6 10 6 10 6 10 6 11 6 11 6 11 5 11 5 11 5 11 5 10 5 10ZM 6 10C 6 10 7 10 7 10 7 10 7 11 7 11 7 11 6 11 6 11 6 11 6 10 6 10ZM 5 9C 5 9 6 9 6 9 6 9 6 10 6 10 6 10 5 10 5 10 5 10 5 9 5 9ZM 4 8C 4 8 5 8 5 8 5 8 5 9 5 9 5 9 4 9 4 9 4 9 4 8 4 8ZM 3 7C 3 7 4 7 4 7 4 7 4 8 4 8 4 8 3 8 3 8 3 8 3 7 3 7ZM 2 6C 2 6 3 6 3 6 3 6 3 7 3 7 3 7 2 7 2 7 2 7 2 6 2 6ZM 2 10C 2 10 3 10 3 10 3 10 3 11 3 11 3 11 2 11 2 11 2 11 2 10 2 10ZM 2 9C 2 9 3 9 3 9 3 9 3 10 3 10 3 10 2 10 2 10 2 10 2 9 2 9ZM 2 8C 2 8 3 8 3 8 3 8 3 9 3 9 3 9 2 9 2 9 2 9 2 8 2 8ZM 2 7C 2 7 3 7 3 7 3 7 3 8 3 8 3 8 2 8 2 8 2 8 2 7 2 7ZM 2 6C 2 6 3 6 3 6 3 6 3 7 3 7 3 7 2 7 2 7 2 7 2 6 2 6ZM 2 5C 2 5 3 5 3 5 3 5 3 6 3 6 3 6 2 6 2 6 2 6 2 5 2 5ZM 2 4C 2 4 3 4 3 4 3 4 3 5 3 5 3 5 2 5 2 5 2 5 2 4 2 4ZM 2 3C 2 3 3 3 3 3 3 3 3 4 3 4 3 4 2 4 2 4 2 4 2 3 2 3ZM 3 9C 3 9 4 9 4 9 4 9 4 10 4 10 4 10 3 10 3 10 3 10 3 9 3 9ZM 3 8C 3 8 4 8 4 8 4 8 4 9 4 9 4 9 3 9 3 9 3 9 3 8 3 8ZM 3 7C 3 7 4 7 4 7 4 7 4 8 4 8 4 8 3 8 3 8 3 8 3 7 3 7ZM 3 6C 3 6 4 6 4 6 4 6 4 7 4 7 4 7 3 7 3 7 3 7 3 6 3 6ZM 3 5C 3 5 4 5 4 5 4 5 4 6 4 6 4 6 3 6 3 6 3 6 3 5 3 5ZM 3 4C 3 4 4 4 4 4 4 4 4 5 4 5 4 5 3 5 3 5 3 5 3 4 3 4ZM 4 8C 4 8 5 8 5 8 5 8 5 9 5 9 5 9 4 9 4 9 4 9 4 8 4 8ZM 4 7C 4 7 5 7 5 7 5 7 5 8 5 8 5 8 4 8 4 8 4 8 4 7 4 7ZM 4 6C 4 6 5 6 5 6 5 6 5 7 5 7 5 7 4 7 4 7 4 7 4 6 4 6ZM 4 5C 4 5 5 5 5 5 5 5 5 6 5 6 5 6 4 6 4 6 4 6 4 5 4 5ZM 5 7C 5 7 6 7 6 7 6 7 6 8 6 8 6 8 5 8 5 8 5 8 5 7 5 7ZM 5 6C 5 6 6 6 6 6 6 6 6 7 6 7 6 7 5 7 5 7 5 7 5 6 5 6ZM 6 6C 6 6 7 6 7 6 7 6 7 7 7 7 7 7 6 7 6 7 6 7 6 6 6 6ZM 5 5C 5 5 6 5 6 5 6 5 6 6 6 6 6 6 5 6 5 6 5 6 5 5 5 5ZM 4 4C 4 4 5 4 5 4 5 4 5 5 5 5 5 5 4 5 4 5 4 5 4 4 4 4ZM 3 3C 3 3 4 3 4 3 4 3 4 4 4 4 4 4 3 4 3 4 3 4 3 3 3 3ZM 2 2C 2 2 3 2 3 2 3 2 3 3 3 3 3 3 2 3 2 3 2 3 2 2 2 2Z" fill="rgb(255,253,239)"/></svg>